{
  "via": [
    {
      "name": "ASPIRACAO"
    },
    {
      "name": "ASSEIO"
    },
    {
      "name": "BOMBA DE INFUSAO"
    },
    {
      "name": "CURATIVO"
    },
    {
      "name": "ENDOVENOSO"
    },
    {
      "name": "GASTROSTOMIA"
    },
    {
      "name": "HIGIENE OCULAR"
    },
    {
      "name": "HIGIENE ORAL"
    },
    {
      "name": "HIPODERMOCLISE"
    },
    {
      "name": "INALACAO"
    },
    {
      "name": "INTRA MUSCULAR"
    },
    {
      "name": "INTRA VAGINAL"
    },
    {
      "name": "INTRA VENOSO"
    },
    {
      "name": "INTRA VESICAL"
    },
    {
      "name": "INTRATECAL"
    },
    {
      "name": "JEJUNOSTOMIA"
    },
    {
      "name": "NASAL"
    },
    {
      "name": "NEBULIZACAO"
    },
    {
      "name": "NÃO UTILIZAR"
    },
    {
      "name": "OTOLOGICA"
    },
    {
      "name": "OXIGENIO"
    },
    {
      "name": "PROCEDIMENTO"
    },
    {
      "name": "PUNCAO CENTRAL"
    },
    {
      "name": "SECAO"
    },
    {
      "name": "SEDACAO"
    },
    {
      "name": "SONDA NASO GASTRICA"
    },
    {
      "name": "SONDA NASOENTERAL"
    },
    {
      "name": "SUB LINGUAL"
    },
    {
      "name": "SUBCUTANEO"
    },
    {
      "name": "TRAQUEOSTOMIA"
    },
    {
      "name": "USO TOPICO"
    },
    {
      "name": "VIA OFTALMICA"
    },
    {
      "name": "VIA ORAL"
    },
    {
      "name": "VIA RETAL"
    }
  ]
}
